-- Merging decision tree log ---
manifest
ADDED from C:\Users\akpak\aduitor\mobile\android\app\src\main\AndroidManifest.xml:1:1-52:12
INJECTED from C:\Users\akpak\aduitor\mobile\android\app\src\main\AndroidManifest.xml:1:1-52:12
INJECTED from C:\Users\akpak\aduitor\mobile\android\app\src\main\AndroidManifest.xml:1:1-52:12
INJECTED from C:\Users\akpak\aduitor\mobile\android\app\src\main\AndroidManifest.xml:1:1-52:12
MERGED from C:\Users\akpak\aduitor\mobile\android\app\src\main\AndroidManifest.xml:1:1-52:12
MERGED from [:background_fetch] C:\Users\akpak\aduitor\mobile\build\background_fetch\intermediates\library_manifest\debug\AndroidManifest.xml:2:1-10:12
MERGED from [:shared_preferences] C:\Users\akpak\aduitor\mobile\build\shared_preferences\intermediates\library_manifest\debug\AndroidManifest.xml:2:1-7:12
MERGED from [:permission_handler] C:\Users\akpak\aduitor\mobile\build\permission_handler\intermediates\library_manifest\debug\AndroidManifest.xml:2:1-7:12
MERGED from [:geolocator] C:\Users\akpak\aduitor\mobile\build\geolocator\intermediates\library_manifest\debug\AndroidManifest.xml:2:1-7:12
MERGED from [:flutter_reachability] C:\Users\akpak\aduitor\mobile\build\flutter_reachability\intermediates\library_manifest\debug\AndroidManifest.xml:2:1-10:12
MERGED from [:workmanager] C:\Users\akpak\aduitor\mobile\build\workmanager\intermediates\library_manifest\debug\AndroidManifest.xml:2:1-7:12
MERGED from [com.transistorsoft:tsbackgroundfetch:0.5.0] C:\Users\akpak\.gradle\caches\transforms-2\files-2.1\005231a4b4a431b077882f0f7219f853\jetified-tsbackgroundfetch-0.5.0\AndroidManifest.xml:2:1-31:12
MERGED from [androidx.appcompat:appcompat:1.1.0] C:\Users\akpak\.gradle\caches\transforms-2\files-2.1\7e8c40e932e8c9f255d7e6c0d335c6c4\appcompat-1.1.0\AndroidManifest.xml:17:1-24:12
MERGED from [androidx.work:work-runtime:2.4.0] C:\Users\akpak\.gradle\caches\transforms-2\files-2.1\f67803057b632d2c8cd47d344b63dfe1\work-runtime-2.4.0\AndroidManifest.xml:17:1-143:12
MERGED from [com.google.android.gms:play-services-location:17.0.0] C:\Users\akpak\.gradle\caches\transforms-2\files-2.1\354b7270b403e5a6599fa1010f5c6b4a\jetified-play-services-location-17.0.0\AndroidManifest.xml:2:1-9:12
MERGED from [com.google.android.gms:play-services-base:17.0.0] C:\Users\akpak\.gradle\caches\transforms-2\files-2.1\80960ac71c81acff934f6abfde69d407\jetified-play-services-base-17.0.0\AndroidManifest.xml:17:1-29:12
MERGED from [com.google.android.gms:play-services-places-placereport:17.0.0] C:\Users\akpak\.gradle\caches\transforms-2\files-2.1\8e0a6dfb5591595b96f7267c0595bdb1\jetified-play-services-places-placereport-17.0.0\AndroidManifest.xml:17:1-24:12
MERGED from [com.google.android.gms:play-services-tasks:17.0.0] C:\Users\akpak\.gradle\caches\transforms-2\files-2.1\dd48084fc1e2e286565354bb12f3da04\jetified-play-services-tasks-17.0.0\AndroidManifest.xml:2:1-9:12
MERGED from [com.google.android.gms:play-services-basement:17.0.0] C:\Users\akpak\.gradle\caches\transforms-2\files-2.1\c4d2bd0fd59f3d5989a556221e9d8667\jetified-play-services-basement-17.0.0\AndroidManifest.xml:17:1-28:12
MERGED from [androidx.fragment:fragment:1.1.0] C:\Users\akpak\.gradle\caches\transforms-2\files-2.1\c48ec40912ace98ef767a9ef481749db\fragment-1.1.0\AndroidManifest.xml:17:1-24:12
MERGED from [androidx.appcompat:appcompat-resources:1.1.0] C:\Users\akpak\.gradle\caches\transforms-2\files-2.1\c2e2500499e09098a4e43f03d705600c\jetified-appcompat-resources-1.1.0\AndroidManifest.xml:17:1-24:12
MERGED from [androidx.drawerlayout:drawerlayout:1.0.0] C:\Users\akpak\.gradle\caches\transforms-2\files-2.1\fb03e5b619f1cc6f52433286a54b7eb0\drawerlayout-1.0.0\AndroidManifest.xml:17:1-22:12
MERGED from [androidx.viewpager:viewpager:1.0.0] C:\Users\akpak\.gradle\caches\transforms-2\files-2.1\b502c4485c477091661a0abd8719f789\viewpager-1.0.0\AndroidManifest.xml:17:1-22:12
MERGED from [androidx.loader:loader:1.0.0] C:\Users\akpak\.gradle\caches\transforms-2\files-2.1\33cbaa35d26a09368a947c625d232cbc\loader-1.0.0\AndroidManifest.xml:17:1-22:12
MERGED from [androidx.activity:activity:1.0.0] C:\Users\akpak\.gradle\caches\transforms-2\files-2.1\3def4eff4da5f9aa8da2410e13ab1879\jetified-activity-1.0.0\AndroidManifest.xml:17:1-24:12
MERGED from [androidx.vectordrawable:vectordrawable-animated:1.1.0] C:\Users\akpak\.gradle\caches\transforms-2\files-2.1\e362f925a4fe9f1fb6067d4177189500\vectordrawable-animated-1.1.0\AndroidManifest.xml:17:1-24:12
MERGED from [androidx.vectordrawable:vectordrawable:1.1.0] C:\Users\akpak\.gradle\caches\transforms-2\files-2.1\5e07e63eaf8d16076f7243adff1f9dc1\vectordrawable-1.1.0\AndroidManifest.xml:17:1-24:12
MERGED from [androidx.customview:customview:1.0.0] C:\Users\akpak\.gradle\caches\transforms-2\files-2.1\e5e0cd3c9e63a6b86c25da02d24ecefb\customview-1.0.0\AndroidManifest.xml:17:1-22:12
MERGED from [androidx.core:core:1.1.0] C:\Users\akpak\.gradle\caches\transforms-2\files-2.1\739d59427ac55c68abe9304cdcf7dffe\core-1.1.0\AndroidManifest.xml:17:1-26:12
MERGED from [androidx.lifecycle:lifecycle-service:2.1.0] C:\Users\akpak\.gradle\caches\transforms-2\files-2.1\bf3950ad6ed31d953d6e0eba7f3499f5\jetified-lifecycle-service-2.1.0\AndroidManifest.xml:17:1-22:12
MERGED from [androidx.lifecycle:lifecycle-runtime:2.2.0] C:\Users\akpak\.gradle\caches\transforms-2\files-2.1\2c0aca75419af953f5b68024797c3334\lifecycle-runtime-2.2.0\AndroidManifest.xml:17:1-24:12
MERGED from [androidx.lifecycle:lifecycle-livedata:2.1.0] C:\Users\akpak\.gradle\caches\transforms-2\files-2.1\46d352ae6b783b5cd6f05ab5e28ca130\lifecycle-livedata-2.1.0\AndroidManifest.xml:17:1-22:12
MERGED from [androidx.lifecycle:lifecycle-livedata-core:2.1.0] C:\Users\akpak\.gradle\caches\transforms-2\files-2.1\674577aa6343c7c5d7d77cdb71f48a8f\lifecycle-livedata-core-2.1.0\AndroidManifest.xml:17:1-22:12
MERGED from [androidx.savedstate:savedstate:1.0.0] C:\Users\akpak\.gradle\caches\transforms-2\files-2.1\871dbd97facfe1233c7889a9b1a9f796\jetified-savedstate-1.0.0\AndroidManifest.xml:17:1-24:12
MERGED from [androidx.cursoradapter:cursoradapter:1.0.0] C:\Users\akpak\.gradle\caches\transforms-2\files-2.1\ca6a61d0e65624f35c5a49468c81fd10\cursoradapter-1.0.0\AndroidManifest.xml:17:1-22:12
MERGED from [androidx.versionedparcelable:versionedparcelable:1.1.0] C:\Users\akpak\.gradle\caches\transforms-2\files-2.1\9a3ec56641a89d7d991422cf49e4c3ae\versionedparcelable-1.1.0\AndroidManifest.xml:17:1-27:12
MERGED from [androidx.room:room-runtime:2.2.5] C:\Users\akpak\.gradle\caches\transforms-2\files-2.1\fadacd6bfd25a7522bda27d8a82451fd\room-runtime-2.2.5\AndroidManifest.xml:17:1-31:12
MERGED from [androidx.sqlite:sqlite-framework:2.1.0] C:\Users\akpak\.gradle\caches\transforms-2\files-2.1\da0352af38275cb9ea6d283f6553cab9\sqlite-framework-2.1.0\AndroidManifest.xml:17:1-24:12
MERGED from [androidx.sqlite:sqlite:2.1.0] C:\Users\akpak\.gradle\caches\transforms-2\files-2.1\1af8c1e8beba8178e4f1d815f507905a\sqlite-2.1.0\AndroidManifest.xml:17:1-24:12
MERGED from [androidx.arch.core:core-runtime:2.1.0] C:\Users\akpak\.gradle\caches\transforms-2\files-2.1\8711265987372ad6b871deed16da3bea\core-runtime-2.1.0\AndroidManifest.xml:17:1-24:12
MERGED from [androidx.lifecycle:lifecycle-viewmodel:2.1.0] C:\Users\akpak\.gradle\caches\transforms-2\files-2.1\63eee6dae17f80a53a65e25cbfb6f20e\lifecycle-viewmodel-2.1.0\AndroidManifest.xml:17:1-22:12
MERGED from [androidx.interpolator:interpolator:1.0.0] C:\Users\akpak\.gradle\caches\transforms-2\files-2.1\8de444c5e3399718efacccedb9730e3b\interpolator-1.0.0\AndroidManifest.xml:17:1-22:12
INJECTED from C:\Users\akpak\aduitor\mobile\android\app\src\debug\AndroidManifest.xml:1:1-7:12
INJECTED from C:\Users\akpak\aduitor\mobile\android\app\src\debug\AndroidManifest.xml:1:1-7:12
INJECTED from C:\Users\akpak\aduitor\mobile\android\app\src\debug\AndroidManifest.xml:1:1-7:12
	package
		ADDED from C:\Users\akpak\aduitor\mobile\android\app\src\main\AndroidManifest.xml:3:5-41
		INJECTED from C:\Users\akpak\aduitor\mobile\android\app\src\main\AndroidManifest.xml
		INJECTED from C:\Users\akpak\aduitor\mobile\android\app\src\debug\AndroidManifest.xml
	android:versionName
		INJECTED from C:\Users\akpak\aduitor\mobile\android\app\src\main\AndroidManifest.xml
		ADDED from C:\Users\akpak\aduitor\mobile\android\app\src\main\AndroidManifest.xml:1:1-52:12
		INJECTED from C:\Users\akpak\aduitor\mobile\android\app\src\debug\AndroidManifest.xml
	xmlns:tools
		ADDED from C:\Users\akpak\aduitor\mobile\android\app\src\main\AndroidManifest.xml:2:5-51
		ADDED from C:\Users\akpak\aduitor\mobile\android\app\src\main\AndroidManifest.xml:2:5-51
	android:versionCode
		INJECTED from C:\Users\akpak\aduitor\mobile\android\app\src\main\AndroidManifest.xml
		ADDED from C:\Users\akpak\aduitor\mobile\android\app\src\main\AndroidManifest.xml:1:1-52:12
		INJECTED from C:\Users\akpak\aduitor\mobile\android\app\src\debug\AndroidManifest.xml
	xmlns:android
		ADDED from C:\Users\akpak\aduitor\mobile\android\app\src\main\AndroidManifest.xml:1:11-69
uses-permission#android.permission.ACCESS_FINE_LOCATION
ADDED from C:\Users\akpak\aduitor\mobile\android\app\src\main\AndroidManifest.xml:4:3-77
	android:name
		ADDED from C:\Users\akpak\aduitor\mobile\android\app\src\main\AndroidManifest.xml:4:20-74
uses-permission#android.permission.ACCESS_COARSE_LOCATION
ADDED from C:\Users\akpak\aduitor\mobile\android\app\src\main\AndroidManifest.xml:5:3-78
	android:name
		ADDED from C:\Users\akpak\aduitor\mobile\android\app\src\main\AndroidManifest.xml:5:20-76
uses-permission#android.permission.ACCESS_BACKGROUND_LOCATION
ADDED from C:\Users\akpak\aduitor\mobile\android\app\src\main\AndroidManifest.xml:6:3-83
	android:name
		ADDED from C:\Users\akpak\aduitor\mobile\android\app\src\main\AndroidManifest.xml:6:20-80
uses-permission#android.permission.ACCESS_NETWORK_STATE
ADDED from C:\Users\akpak\aduitor\mobile\android\app\src\main\AndroidManifest.xml:7:5-79
MERGED from [:flutter_reachability] C:\Users\akpak\aduitor\mobile\build\flutter_reachability\intermediates\library_manifest\debug\AndroidManifest.xml:7:5-79
MERGED from [:flutter_reachability] C:\Users\akpak\aduitor\mobile\build\flutter_reachability\intermediates\library_manifest\debug\AndroidManifest.xml:7:5-79
MERGED from [androidx.work:work-runtime:2.4.0] C:\Users\akpak\.gradle\caches\transforms-2\files-2.1\f67803057b632d2c8cd47d344b63dfe1\work-runtime-2.4.0\AndroidManifest.xml:26:5-79
MERGED from [androidx.work:work-runtime:2.4.0] C:\Users\akpak\.gradle\caches\transforms-2\files-2.1\f67803057b632d2c8cd47d344b63dfe1\work-runtime-2.4.0\AndroidManifest.xml:26:5-79
	android:name
		ADDED from C:\Users\akpak\aduitor\mobile\android\app\src\main\AndroidManifest.xml:7:22-76
uses-permission#android.permission.CHANGE_NETWORK_STATE
ADDED from C:\Users\akpak\aduitor\mobile\android\app\src\main\AndroidManifest.xml:9:5-79
	android:name
		ADDED from C:\Users\akpak\aduitor\mobile\android\app\src\main\AndroidManifest.xml:9:22-76
uses-permission#android.permission.INTERNET
ADDED from C:\Users\akpak\aduitor\mobile\android\app\src\main\AndroidManifest.xml:10:5-66
MERGED from C:\Users\akpak\aduitor\mobile\android\app\src\main\AndroidManifest.xml:10:5-66
MERGED from C:\Users\akpak\aduitor\mobile\android\app\src\main\AndroidManifest.xml:10:5-66
	android:name
		ADDED from C:\Users\akpak\aduitor\mobile\android\app\src\main\AndroidManifest.xml:10:22-64
uses-permission#android.permission.READ_PHONE_STATE
ADDED from C:\Users\akpak\aduitor\mobile\android\app\src\main\AndroidManifest.xml:11:5-75
MERGED from [:flutter_reachability] C:\Users\akpak\aduitor\mobile\build\flutter_reachability\intermediates\library_manifest\debug\AndroidManifest.xml:8:5-75
MERGED from [:flutter_reachability] C:\Users\akpak\aduitor\mobile\build\flutter_reachability\intermediates\library_manifest\debug\AndroidManifest.xml:8:5-75
	android:name
		ADDED from C:\Users\akpak\aduitor\mobile\android\app\src\main\AndroidManifest.xml:11:22-72
application
ADDED from C:\Users\akpak\aduitor\mobile\android\app\src\main\AndroidManifest.xml:13:5-51:19
MERGED from [:background_fetch] C:\Users\akpak\aduitor\mobile\build\background_fetch\intermediates\library_manifest\debug\AndroidManifest.xml:7:5-8:19
MERGED from [:background_fetch] C:\Users\akpak\aduitor\mobile\build\background_fetch\intermediates\library_manifest\debug\AndroidManifest.xml:7:5-8:19
MERGED from [com.transistorsoft:tsbackgroundfetch:0.5.0] C:\Users\akpak\.gradle\caches\transforms-2\files-2.1\005231a4b4a431b077882f0f7219f853\jetified-tsbackgroundfetch-0.5.0\AndroidManifest.xml:15:5-29:19
MERGED from [com.transistorsoft:tsbackgroundfetch:0.5.0] C:\Users\akpak\.gradle\caches\transforms-2\files-2.1\005231a4b4a431b077882f0f7219f853\jetified-tsbackgroundfetch-0.5.0\AndroidManifest.xml:15:5-29:19
MERGED from [androidx.work:work-runtime:2.4.0] C:\Users\akpak\.gradle\caches\transforms-2\files-2.1\f67803057b632d2c8cd47d344b63dfe1\work-runtime-2.4.0\AndroidManifest.xml:30:5-141:19
MERGED from [androidx.work:work-runtime:2.4.0] C:\Users\akpak\.gradle\caches\transforms-2\files-2.1\f67803057b632d2c8cd47d344b63dfe1\work-runtime-2.4.0\AndroidManifest.xml:30:5-141:19
MERGED from [com.google.android.gms:play-services-location:17.0.0] C:\Users\akpak\.gradle\caches\transforms-2\files-2.1\354b7270b403e5a6599fa1010f5c6b4a\jetified-play-services-location-17.0.0\AndroidManifest.xml:7:5-20
MERGED from [com.google.android.gms:play-services-location:17.0.0] C:\Users\akpak\.gradle\caches\transforms-2\files-2.1\354b7270b403e5a6599fa1010f5c6b4a\jetified-play-services-location-17.0.0\AndroidManifest.xml:7:5-20
MERGED from [com.google.android.gms:play-services-base:17.0.0] C:\Users\akpak\.gradle\caches\transforms-2\files-2.1\80960ac71c81acff934f6abfde69d407\jetified-play-services-base-17.0.0\AndroidManifest.xml:22:5-27:19
MERGED from [com.google.android.gms:play-services-base:17.0.0] C:\Users\akpak\.gradle\caches\transforms-2\files-2.1\80960ac71c81acff934f6abfde69d407\jetified-play-services-base-17.0.0\AndroidManifest.xml:22:5-27:19
MERGED from [com.google.android.gms:play-services-places-placereport:17.0.0] C:\Users\akpak\.gradle\caches\transforms-2\files-2.1\8e0a6dfb5591595b96f7267c0595bdb1\jetified-play-services-places-placereport-17.0.0\AndroidManifest.xml:22:5-20
MERGED from [com.google.android.gms:play-services-places-placereport:17.0.0] C:\Users\akpak\.gradle\caches\transforms-2\files-2.1\8e0a6dfb5591595b96f7267c0595bdb1\jetified-play-services-places-placereport-17.0.0\AndroidManifest.xml:22:5-20
MERGED from [com.google.android.gms:play-services-tasks:17.0.0] C:\Users\akpak\.gradle\caches\transforms-2\files-2.1\dd48084fc1e2e286565354bb12f3da04\jetified-play-services-tasks-17.0.0\AndroidManifest.xml:7:5-20
MERGED from [com.google.android.gms:play-services-tasks:17.0.0] C:\Users\akpak\.gradle\caches\transforms-2\files-2.1\dd48084fc1e2e286565354bb12f3da04\jetified-play-services-tasks-17.0.0\AndroidManifest.xml:7:5-20
MERGED from [com.google.android.gms:play-services-basement:17.0.0] C:\Users\akpak\.gradle\caches\transforms-2\files-2.1\c4d2bd0fd59f3d5989a556221e9d8667\jetified-play-services-basement-17.0.0\AndroidManifest.xml:22:5-26:19
MERGED from [com.google.android.gms:play-services-basement:17.0.0] C:\Users\akpak\.gradle\caches\transforms-2\files-2.1\c4d2bd0fd59f3d5989a556221e9d8667\jetified-play-services-basement-17.0.0\AndroidManifest.xml:22:5-26:19
MERGED from [androidx.core:core:1.1.0] C:\Users\akpak\.gradle\caches\transforms-2\files-2.1\739d59427ac55c68abe9304cdcf7dffe\core-1.1.0\AndroidManifest.xml:24:5-89
MERGED from [androidx.core:core:1.1.0] C:\Users\akpak\.gradle\caches\transforms-2\files-2.1\739d59427ac55c68abe9304cdcf7dffe\core-1.1.0\AndroidManifest.xml:24:5-89
MERGED from [androidx.versionedparcelable:versionedparcelable:1.1.0] C:\Users\akpak\.gradle\caches\transforms-2\files-2.1\9a3ec56641a89d7d991422cf49e4c3ae\versionedparcelable-1.1.0\AndroidManifest.xml:24:5-25:19
MERGED from [androidx.versionedparcelable:versionedparcelable:1.1.0] C:\Users\akpak\.gradle\caches\transforms-2\files-2.1\9a3ec56641a89d7d991422cf49e4c3ae\versionedparcelable-1.1.0\AndroidManifest.xml:24:5-25:19
MERGED from [androidx.room:room-runtime:2.2.5] C:\Users\akpak\.gradle\caches\transforms-2\files-2.1\fadacd6bfd25a7522bda27d8a82451fd\room-runtime-2.2.5\AndroidManifest.xml:24:5-29:19
MERGED from [androidx.room:room-runtime:2.2.5] C:\Users\akpak\.gradle\caches\transforms-2\files-2.1\fadacd6bfd25a7522bda27d8a82451fd\room-runtime-2.2.5\AndroidManifest.xml:24:5-29:19
	android:appComponentFactory
		ADDED from [androidx.core:core:1.1.0] C:\Users\akpak\.gradle\caches\transforms-2\files-2.1\739d59427ac55c68abe9304cdcf7dffe\core-1.1.0\AndroidManifest.xml:24:18-86
	android:label
		ADDED from C:\Users\akpak\aduitor\mobile\android\app\src\main\AndroidManifest.xml:15:9-39
	android:icon
		ADDED from C:\Users\akpak\aduitor\mobile\android\app\src\main\AndroidManifest.xml:16:9-43
	tools:replace
		ADDED from C:\Users\akpak\aduitor\mobile\android\app\src\main\AndroidManifest.xml:14:9-38
activity#com.example.aduitor_mobile.MainActivity
ADDED from C:\Users\akpak\aduitor\mobile\android\app\src\main\AndroidManifest.xml:17:9-45:20
	android:launchMode
		ADDED from C:\Users\akpak\aduitor\mobile\android\app\src\main\AndroidManifest.xml:19:13-43
	android:hardwareAccelerated
		ADDED from C:\Users\akpak\aduitor\mobile\android\app\src\main\AndroidManifest.xml:22:13-47
	android:windowSoftInputMode
		ADDED from C:\Users\akpak\aduitor\mobile\android\app\src\main\AndroidManifest.xml:23:13-55
	android:configChanges
		ADDED from C:\Users\akpak\aduitor\mobile\android\app\src\main\AndroidManifest.xml:21:13-163
	android:theme
		ADDED from C:\Users\akpak\aduitor\mobile\android\app\src\main\AndroidManifest.xml:20:13-47
	android:name
		ADDED from C:\Users\akpak\aduitor\mobile\android\app\src\main\AndroidManifest.xml:18:13-41
meta-data#io.flutter.embedding.android.NormalTheme
ADDED from C:\Users\akpak\aduitor\mobile\android\app\src\main\AndroidManifest.xml:28:13-31:17
	android:resource
		ADDED from C:\Users\akpak\aduitor\mobile\android\app\src\main\AndroidManifest.xml:30:15-52
	android:name
		ADDED from C:\Users\akpak\aduitor\mobile\android\app\src\main\AndroidManifest.xml:29:15-70
meta-data#io.flutter.embedding.android.SplashScreenDrawable
ADDED from C:\Users\akpak\aduitor\mobile\android\app\src\main\AndroidManifest.xml:37:13-40:17
	android:resource
		ADDED from C:\Users\akpak\aduitor\mobile\android\app\src\main\AndroidManifest.xml:39:15-61
	android:name
		ADDED from C:\Users\akpak\aduitor\mobile\android\app\src\main\AndroidManifest.xml:38:15-79
intent-filter#action:name:android.intent.action.MAIN+category:name:android.intent.category.LAUNCHER
ADDED from C:\Users\akpak\aduitor\mobile\android\app\src\main\AndroidManifest.xml:41:13-44:29
action#android.intent.action.MAIN
ADDED from C:\Users\akpak\aduitor\mobile\android\app\src\main\AndroidManifest.xml:42:17-68
	android:name
		ADDED from C:\Users\akpak\aduitor\mobile\android\app\src\main\AndroidManifest.xml:42:25-66
category#android.intent.category.LAUNCHER
ADDED from C:\Users\akpak\aduitor\mobile\android\app\src\main\AndroidManifest.xml:43:17-76
	android:name
		ADDED from C:\Users\akpak\aduitor\mobile\android\app\src\main\AndroidManifest.xml:43:27-74
meta-data#flutterEmbedding
ADDED from C:\Users\akpak\aduitor\mobile\android\app\src\main\AndroidManifest.xml:48:9-50:33
	android:value
		ADDED from C:\Users\akpak\aduitor\mobile\android\app\src\main\AndroidManifest.xml:50:13-30
	android:name
		ADDED from C:\Users\akpak\aduitor\mobile\android\app\src\main\AndroidManifest.xml:49:13-44
uses-sdk
INJECTED from C:\Users\akpak\aduitor\mobile\android\app\src\main\AndroidManifest.xml reason: use-sdk injection requested
INJECTED from C:\Users\akpak\aduitor\mobile\android\app\src\main\AndroidManifest.xml
INJECTED from C:\Users\akpak\aduitor\mobile\android\app\src\main\AndroidManifest.xml
MERGED from [:background_fetch] C:\Users\akpak\aduitor\mobile\build\background_fetch\intermediates\library_manifest\debug\AndroidManifest.xml:5:5-44
MERGED from [:background_fetch] C:\Users\akpak\aduitor\mobile\build\background_fetch\intermediates\library_manifest\debug\AndroidManifest.xml:5:5-44
MERGED from [:shared_preferences] C:\Users\akpak\aduitor\mobile\build\shared_preferences\intermediates\library_manifest\debug\AndroidManifest.xml:5:5-44
MERGED from [:shared_preferences] C:\Users\akpak\aduitor\mobile\build\shared_preferences\intermediates\library_manifest\debug\AndroidManifest.xml:5:5-44
MERGED from [:permission_handler] C:\Users\akpak\aduitor\mobile\build\permission_handler\intermediates\library_manifest\debug\AndroidManifest.xml:5:5-44
MERGED from [:permission_handler] C:\Users\akpak\aduitor\mobile\build\permission_handler\intermediates\library_manifest\debug\AndroidManifest.xml:5:5-44
MERGED from [:geolocator] C:\Users\akpak\aduitor\mobile\build\geolocator\intermediates\library_manifest\debug\AndroidManifest.xml:5:5-44
MERGED from [:geolocator] C:\Users\akpak\aduitor\mobile\build\geolocator\intermediates\library_manifest\debug\AndroidManifest.xml:5:5-44
MERGED from [:flutter_reachability] C:\Users\akpak\aduitor\mobile\build\flutter_reachability\intermediates\library_manifest\debug\AndroidManifest.xml:5:5-44
MERGED from [:flutter_reachability] C:\Users\akpak\aduitor\mobile\build\flutter_reachability\intermediates\library_manifest\debug\AndroidManifest.xml:5:5-44
MERGED from [:workmanager] C:\Users\akpak\aduitor\mobile\build\workmanager\intermediates\library_manifest\debug\AndroidManifest.xml:5:5-44
MERGED from [:workmanager] C:\Users\akpak\aduitor\mobile\build\workmanager\intermediates\library_manifest\debug\AndroidManifest.xml:5:5-44
MERGED from [com.transistorsoft:tsbackgroundfetch:0.5.0] C:\Users\akpak\.gradle\caches\transforms-2\files-2.1\005231a4b4a431b077882f0f7219f853\jetified-tsbackgroundfetch-0.5.0\AndroidManifest.xml:7:5-9:41
MERGED from [com.transistorsoft:tsbackgroundfetch:0.5.0] C:\Users\akpak\.gradle\caches\transforms-2\files-2.1\005231a4b4a431b077882f0f7219f853\jetified-tsbackgroundfetch-0.5.0\AndroidManifest.xml:7:5-9:41
MERGED from [androidx.appcompat:appcompat:1.1.0] C:\Users\akpak\.gradle\caches\transforms-2\files-2.1\7e8c40e932e8c9f255d7e6c0d335c6c4\appcompat-1.1.0\AndroidManifest.xml:20:5-22:41
MERGED from [androidx.appcompat:appcompat:1.1.0] C:\Users\akpak\.gradle\caches\transforms-2\files-2.1\7e8c40e932e8c9f255d7e6c0d335c6c4\appcompat-1.1.0\AndroidManifest.xml:20:5-22:41
MERGED from [androidx.work:work-runtime:2.4.0] C:\Users\akpak\.gradle\caches\transforms-2\files-2.1\f67803057b632d2c8cd47d344b63dfe1\work-runtime-2.4.0\AndroidManifest.xml:21:5-23:41
MERGED from [androidx.work:work-runtime:2.4.0] C:\Users\akpak\.gradle\caches\transforms-2\files-2.1\f67803057b632d2c8cd47d344b63dfe1\work-runtime-2.4.0\AndroidManifest.xml:21:5-23:41
MERGED from [com.google.android.gms:play-services-location:17.0.0] C:\Users\akpak\.gradle\caches\transforms-2\files-2.1\354b7270b403e5a6599fa1010f5c6b4a\jetified-play-services-location-17.0.0\AndroidManifest.xml:5:5-44
MERGED from [com.google.android.gms:play-services-location:17.0.0] C:\Users\akpak\.gradle\caches\transforms-2\files-2.1\354b7270b403e5a6599fa1010f5c6b4a\jetified-play-services-location-17.0.0\AndroidManifest.xml:5:5-44
MERGED from [com.google.android.gms:play-services-base:17.0.0] C:\Users\akpak\.gradle\caches\transforms-2\files-2.1\80960ac71c81acff934f6abfde69d407\jetified-play-services-base-17.0.0\AndroidManifest.xml:20:5-44
MERGED from [com.google.android.gms:play-services-base:17.0.0] C:\Users\akpak\.gradle\caches\transforms-2\files-2.1\80960ac71c81acff934f6abfde69d407\jetified-play-services-base-17.0.0\AndroidManifest.xml:20:5-44
MERGED from [com.google.android.gms:play-services-places-placereport:17.0.0] C:\Users\akpak\.gradle\caches\transforms-2\files-2.1\8e0a6dfb5591595b96f7267c0595bdb1\jetified-play-services-places-placereport-17.0.0\AndroidManifest.xml:20:5-44
MERGED from [com.google.android.gms:play-services-places-placereport:17.0.0] C:\Users\akpak\.gradle\caches\transforms-2\files-2.1\8e0a6dfb5591595b96f7267c0595bdb1\jetified-play-services-places-placereport-17.0.0\AndroidManifest.xml:20:5-44
MERGED from [com.google.android.gms:play-services-tasks:17.0.0] C:\Users\akpak\.gradle\caches\transforms-2\files-2.1\dd48084fc1e2e286565354bb12f3da04\jetified-play-services-tasks-17.0.0\AndroidManifest.xml:5:5-44
MERGED from [com.google.android.gms:play-services-tasks:17.0.0] C:\Users\akpak\.gradle\caches\transforms-2\files-2.1\dd48084fc1e2e286565354bb12f3da04\jetified-play-services-tasks-17.0.0\AndroidManifest.xml:5:5-44
MERGED from [com.google.android.gms:play-services-basement:17.0.0] C:\Users\akpak\.gradle\caches\transforms-2\files-2.1\c4d2bd0fd59f3d5989a556221e9d8667\jetified-play-services-basement-17.0.0\AndroidManifest.xml:20:5-44
MERGED from [com.google.android.gms:play-services-basement:17.0.0] C:\Users\akpak\.gradle\caches\transforms-2\files-2.1\c4d2bd0fd59f3d5989a556221e9d8667\jetified-play-services-basement-17.0.0\AndroidManifest.xml:20:5-44
MERGED from [androidx.fragment:fragment:1.1.0] C:\Users\akpak\.gradle\caches\transforms-2\files-2.1\c48ec40912ace98ef767a9ef481749db\fragment-1.1.0\AndroidManifest.xml:20:5-22:41
MERGED from [androidx.fragment:fragment:1.1.0] C:\Users\akpak\.gradle\caches\transforms-2\files-2.1\c48ec40912ace98ef767a9ef481749db\fragment-1.1.0\AndroidManifest.xml:20:5-22:41
MERGED from [androidx.appcompat:appcompat-resources:1.1.0] C:\Users\akpak\.gradle\caches\transforms-2\files-2.1\c2e2500499e09098a4e43f03d705600c\jetified-appcompat-resources-1.1.0\AndroidManifest.xml:20:5-22:41
MERGED from [androidx.appcompat:appcompat-resources:1.1.0] C:\Users\akpak\.gradle\caches\transforms-2\files-2.1\c2e2500499e09098a4e43f03d705600c\jetified-appcompat-resources-1.1.0\AndroidManifest.xml:20:5-22:41
MERGED from [androidx.drawerlayout:drawerlayout:1.0.0] C:\Users\akpak\.gradle\caches\transforms-2\files-2.1\fb03e5b619f1cc6f52433286a54b7eb0\drawerlayout-1.0.0\AndroidManifest.xml:20:5-44
MERGED from [androidx.drawerlayout:drawerlayout:1.0.0] C:\Users\akpak\.gradle\caches\transforms-2\files-2.1\fb03e5b619f1cc6f52433286a54b7eb0\drawerlayout-1.0.0\AndroidManifest.xml:20:5-44
MERGED from [androidx.viewpager:viewpager:1.0.0] C:\Users\akpak\.gradle\caches\transforms-2\files-2.1\b502c4485c477091661a0abd8719f789\viewpager-1.0.0\AndroidManifest.xml:20:5-44
MERGED from [androidx.viewpager:viewpager:1.0.0] C:\Users\akpak\.gradle\caches\transforms-2\files-2.1\b502c4485c477091661a0abd8719f789\viewpager-1.0.0\AndroidManifest.xml:20:5-44
MERGED from [androidx.loader:loader:1.0.0] C:\Users\akpak\.gradle\caches\transforms-2\files-2.1\33cbaa35d26a09368a947c625d232cbc\loader-1.0.0\AndroidManifest.xml:20:5-44
MERGED from [androidx.loader:loader:1.0.0] C:\Users\akpak\.gradle\caches\transforms-2\files-2.1\33cbaa35d26a09368a947c625d232cbc\loader-1.0.0\AndroidManifest.xml:20:5-44
MERGED from [androidx.activity:activity:1.0.0] C:\Users\akpak\.gradle\caches\transforms-2\files-2.1\3def4eff4da5f9aa8da2410e13ab1879\jetified-activity-1.0.0\AndroidManifest.xml:20:5-22:41
MERGED from [androidx.activity:activity:1.0.0] C:\Users\akpak\.gradle\caches\transforms-2\files-2.1\3def4eff4da5f9aa8da2410e13ab1879\jetified-activity-1.0.0\AndroidManifest.xml:20:5-22:41
MERGED from [androidx.vectordrawable:vectordrawable-animated:1.1.0] C:\Users\akpak\.gradle\caches\transforms-2\files-2.1\e362f925a4fe9f1fb6067d4177189500\vectordrawable-animated-1.1.0\AndroidManifest.xml:20:5-22:41
MERGED from [androidx.vectordrawable:vectordrawable-animated:1.1.0] C:\Users\akpak\.gradle\caches\transforms-2\files-2.1\e362f925a4fe9f1fb6067d4177189500\vectordrawable-animated-1.1.0\AndroidManifest.xml:20:5-22:41
MERGED from [androidx.vectordrawable:vectordrawable:1.1.0] C:\Users\akpak\.gradle\caches\transforms-2\files-2.1\5e07e63eaf8d16076f7243adff1f9dc1\vectordrawable-1.1.0\AndroidManifest.xml:20:5-22:41
MERGED from [androidx.vectordrawable:vectordrawable:1.1.0] C:\Users\akpak\.gradle\caches\transforms-2\files-2.1\5e07e63eaf8d16076f7243adff1f9dc1\vectordrawable-1.1.0\AndroidManifest.xml:20:5-22:41
MERGED from [androidx.customview:customview:1.0.0] C:\Users\akpak\.gradle\caches\transforms-2\files-2.1\e5e0cd3c9e63a6b86c25da02d24ecefb\customview-1.0.0\AndroidManifest.xml:20:5-44
MERGED from [androidx.customview:customview:1.0.0] C:\Users\akpak\.gradle\caches\transforms-2\files-2.1\e5e0cd3c9e63a6b86c25da02d24ecefb\customview-1.0.0\AndroidManifest.xml:20:5-44
MERGED from [androidx.core:core:1.1.0] C:\Users\akpak\.gradle\caches\transforms-2\files-2.1\739d59427ac55c68abe9304cdcf7dffe\core-1.1.0\AndroidManifest.xml:20:5-22:41
MERGED from [androidx.core:core:1.1.0] C:\Users\akpak\.gradle\caches\transforms-2\files-2.1\739d59427ac55c68abe9304cdcf7dffe\core-1.1.0\AndroidManifest.xml:20:5-22:41
MERGED from [androidx.lifecycle:lifecycle-service:2.1.0] C:\Users\akpak\.gradle\caches\transforms-2\files-2.1\bf3950ad6ed31d953d6e0eba7f3499f5\jetified-lifecycle-service-2.1.0\AndroidManifest.xml:20:5-44
MERGED from [androidx.lifecycle:lifecycle-service:2.1.0] C:\Users\akpak\.gradle\caches\transforms-2\files-2.1\bf3950ad6ed31d953d6e0eba7f3499f5\jetified-lifecycle-service-2.1.0\AndroidManifest.xml:20:5-44
MERGED from [androidx.lifecycle:lifecycle-runtime:2.2.0] C:\Users\akpak\.gradle\caches\transforms-2\files-2.1\2c0aca75419af953f5b68024797c3334\lifecycle-runtime-2.2.0\AndroidManifest.xml:20:5-22:41
MERGED from [androidx.lifecycle:lifecycle-runtime:2.2.0] C:\Users\akpak\.gradle\caches\transforms-2\files-2.1\2c0aca75419af953f5b68024797c3334\lifecycle-runtime-2.2.0\AndroidManifest.xml:20:5-22:41
MERGED from [androidx.lifecycle:lifecycle-livedata:2.1.0] C:\Users\akpak\.gradle\caches\transforms-2\files-2.1\46d352ae6b783b5cd6f05ab5e28ca130\lifecycle-livedata-2.1.0\AndroidManifest.xml:20:5-44
MERGED from [androidx.lifecycle:lifecycle-livedata:2.1.0] C:\Users\akpak\.gradle\caches\transforms-2\files-2.1\46d352ae6b783b5cd6f05ab5e28ca130\lifecycle-livedata-2.1.0\AndroidManifest.xml:20:5-44
MERGED from [androidx.lifecycle:lifecycle-livedata-core:2.1.0] C:\Users\akpak\.gradle\caches\transforms-2\files-2.1\674577aa6343c7c5d7d77cdb71f48a8f\lifecycle-livedata-core-2.1.0\AndroidManifest.xml:20:5-44
MERGED from [androidx.lifecycle:lifecycle-livedata-core:2.1.0] C:\Users\akpak\.gradle\caches\transforms-2\files-2.1\674577aa6343c7c5d7d77cdb71f48a8f\lifecycle-livedata-core-2.1.0\AndroidManifest.xml:20:5-44
MERGED from [androidx.savedstate:savedstate:1.0.0] C:\Users\akpak\.gradle\caches\transforms-2\files-2.1\871dbd97facfe1233c7889a9b1a9f796\jetified-savedstate-1.0.0\AndroidManifest.xml:20:5-22:41
MERGED from [androidx.savedstate:savedstate:1.0.0] C:\Users\akpak\.gradle\caches\transforms-2\files-2.1\871dbd97facfe1233c7889a9b1a9f796\jetified-savedstate-1.0.0\AndroidManifest.xml:20:5-22:41
MERGED from [androidx.cursoradapter:cursoradapter:1.0.0] C:\Users\akpak\.gradle\caches\transforms-2\files-2.1\ca6a61d0e65624f35c5a49468c81fd10\cursoradapter-1.0.0\AndroidManifest.xml:20:5-44
MERGED from [androidx.cursoradapter:cursoradapter:1.0.0] C:\Users\akpak\.gradle\caches\transforms-2\files-2.1\ca6a61d0e65624f35c5a49468c81fd10\cursoradapter-1.0.0\AndroidManifest.xml:20:5-44
MERGED from [androidx.versionedparcelable:versionedparcelable:1.1.0] C:\Users\akpak\.gradle\caches\transforms-2\files-2.1\9a3ec56641a89d7d991422cf49e4c3ae\versionedparcelable-1.1.0\AndroidManifest.xml:20:5-22:41
MERGED from [androidx.versionedparcelable:versionedparcelable:1.1.0] C:\Users\akpak\.gradle\caches\transforms-2\files-2.1\9a3ec56641a89d7d991422cf49e4c3ae\versionedparcelable-1.1.0\AndroidManifest.xml:20:5-22:41
MERGED from [androidx.room:room-runtime:2.2.5] C:\Users\akpak\.gradle\caches\transforms-2\files-2.1\fadacd6bfd25a7522bda27d8a82451fd\room-runtime-2.2.5\AndroidManifest.xml:20:5-22:41
MERGED from [androidx.room:room-runtime:2.2.5] C:\Users\akpak\.gradle\caches\transforms-2\files-2.1\fadacd6bfd25a7522bda27d8a82451fd\room-runtime-2.2.5\AndroidManifest.xml:20:5-22:41
MERGED from [androidx.sqlite:sqlite-framework:2.1.0] C:\Users\akpak\.gradle\caches\transforms-2\files-2.1\da0352af38275cb9ea6d283f6553cab9\sqlite-framework-2.1.0\AndroidManifest.xml:20:5-22:41
MERGED from [androidx.sqlite:sqlite-framework:2.1.0] C:\Users\akpak\.gradle\caches\transforms-2\files-2.1\da0352af38275cb9ea6d283f6553cab9\sqlite-framework-2.1.0\AndroidManifest.xml:20:5-22:41
MERGED from [androidx.sqlite:sqlite:2.1.0] C:\Users\akpak\.gradle\caches\transforms-2\files-2.1\1af8c1e8beba8178e4f1d815f507905a\sqlite-2.1.0\AndroidManifest.xml:20:5-22:41
MERGED from [androidx.sqlite:sqlite:2.1.0] C:\Users\akpak\.gradle\caches\transforms-2\files-2.1\1af8c1e8beba8178e4f1d815f507905a\sqlite-2.1.0\AndroidManifest.xml:20:5-22:41
MERGED from [androidx.arch.core:core-runtime:2.1.0] C:\Users\akpak\.gradle\caches\transforms-2\files-2.1\8711265987372ad6b871deed16da3bea\core-runtime-2.1.0\AndroidManifest.xml:20:5-22:41
MERGED from [androidx.arch.core:core-runtime:2.1.0] C:\Users\akpak\.gradle\caches\transforms-2\files-2.1\8711265987372ad6b871deed16da3bea\core-runtime-2.1.0\AndroidManifest.xml:20:5-22:41
MERGED from [androidx.lifecycle:lifecycle-viewmodel:2.1.0] C:\Users\akpak\.gradle\caches\transforms-2\files-2.1\63eee6dae17f80a53a65e25cbfb6f20e\lifecycle-viewmodel-2.1.0\AndroidManifest.xml:20:5-44
MERGED from [androidx.lifecycle:lifecycle-viewmodel:2.1.0] C:\Users\akpak\.gradle\caches\transforms-2\files-2.1\63eee6dae17f80a53a65e25cbfb6f20e\lifecycle-viewmodel-2.1.0\AndroidManifest.xml:20:5-44
MERGED from [androidx.interpolator:interpolator:1.0.0] C:\Users\akpak\.gradle\caches\transforms-2\files-2.1\8de444c5e3399718efacccedb9730e3b\interpolator-1.0.0\AndroidManifest.xml:20:5-44
MERGED from [androidx.interpolator:interpolator:1.0.0] C:\Users\akpak\.gradle\caches\transforms-2\files-2.1\8de444c5e3399718efacccedb9730e3b\interpolator-1.0.0\AndroidManifest.xml:20:5-44
INJECTED from C:\Users\akpak\aduitor\mobile\android\app\src\debug\AndroidManifest.xml
INJECTED from C:\Users\akpak\aduitor\mobile\android\app\src\debug\AndroidManifest.xml
	android:targetSdkVersion
		INJECTED from C:\Users\akpak\aduitor\mobile\android\app\src\main\AndroidManifest.xml
		INJECTED from C:\Users\akpak\aduitor\mobile\android\app\src\debug\AndroidManifest.xml
	android:minSdkVersion
		INJECTED from C:\Users\akpak\aduitor\mobile\android\app\src\main\AndroidManifest.xml
		INJECTED from C:\Users\akpak\aduitor\mobile\android\app\src\debug\AndroidManifest.xml
uses-permission#android.permission.RECEIVE_BOOT_COMPLETED
ADDED from [com.transistorsoft:tsbackgroundfetch:0.5.0] C:\Users\akpak\.gradle\caches\transforms-2\files-2.1\005231a4b4a431b077882f0f7219f853\jetified-tsbackgroundfetch-0.5.0\AndroidManifest.xml:11:5-81
MERGED from [androidx.work:work-runtime:2.4.0] C:\Users\akpak\.gradle\caches\transforms-2\files-2.1\f67803057b632d2c8cd47d344b63dfe1\work-runtime-2.4.0\AndroidManifest.xml:27:5-81
MERGED from [androidx.work:work-runtime:2.4.0] C:\Users\akpak\.gradle\caches\transforms-2\files-2.1\f67803057b632d2c8cd47d344b63dfe1\work-runtime-2.4.0\AndroidManifest.xml:27:5-81
	android:name
		ADDED from [com.transistorsoft:tsbackgroundfetch:0.5.0] C:\Users\akpak\.gradle\caches\transforms-2\files-2.1\005231a4b4a431b077882f0f7219f853\jetified-tsbackgroundfetch-0.5.0\AndroidManifest.xml:11:22-78
uses-permission#android.permission.WAKE_LOCK
ADDED from [com.transistorsoft:tsbackgroundfetch:0.5.0] C:\Users\akpak\.gradle\caches\transforms-2\files-2.1\005231a4b4a431b077882f0f7219f853\jetified-tsbackgroundfetch-0.5.0\AndroidManifest.xml:12:5-68
MERGED from [androidx.work:work-runtime:2.4.0] C:\Users\akpak\.gradle\caches\transforms-2\files-2.1\f67803057b632d2c8cd47d344b63dfe1\work-runtime-2.4.0\AndroidManifest.xml:25:5-68
MERGED from [androidx.work:work-runtime:2.4.0] C:\Users\akpak\.gradle\caches\transforms-2\files-2.1\f67803057b632d2c8cd47d344b63dfe1\work-runtime-2.4.0\AndroidManifest.xml:25:5-68
	android:name
		ADDED from [com.transistorsoft:tsbackgroundfetch:0.5.0] C:\Users\akpak\.gradle\caches\transforms-2\files-2.1\005231a4b4a431b077882f0f7219f853\jetified-tsbackgroundfetch-0.5.0\AndroidManifest.xml:12:22-65
uses-permission#android.permission.GET_TASKS
ADDED from [com.transistorsoft:tsbackgroundfetch:0.5.0] C:\Users\akpak\.gradle\caches\transforms-2\files-2.1\005231a4b4a431b077882f0f7219f853\jetified-tsbackgroundfetch-0.5.0\AndroidManifest.xml:13:5-68
	android:name
		ADDED from [com.transistorsoft:tsbackgroundfetch:0.5.0] C:\Users\akpak\.gradle\caches\transforms-2\files-2.1\005231a4b4a431b077882f0f7219f853\jetified-tsbackgroundfetch-0.5.0\AndroidManifest.xml:13:22-65
receiver#com.transistorsoft.tsbackgroundfetch.FetchAlarmReceiver
ADDED from [com.transistorsoft:tsbackgroundfetch:0.5.0] C:\Users\akpak\.gradle\caches\transforms-2\files-2.1\005231a4b4a431b077882f0f7219f853\jetified-tsbackgroundfetch-0.5.0\AndroidManifest.xml:16:9-92
	android:name
		ADDED from [com.transistorsoft:tsbackgroundfetch:0.5.0] C:\Users\akpak\.gradle\caches\transforms-2\files-2.1\005231a4b4a431b077882f0f7219f853\jetified-tsbackgroundfetch-0.5.0\AndroidManifest.xml:16:19-89
service#com.transistorsoft.tsbackgroundfetch.FetchJobService
ADDED from [com.transistorsoft:tsbackgroundfetch:0.5.0] C:\Users\akpak\.gradle\caches\transforms-2\files-2.1\005231a4b4a431b077882f0f7219f853\jetified-tsbackgroundfetch-0.5.0\AndroidManifest.xml:18:9-21:72
	android:exported
		ADDED from [com.transistorsoft:tsbackgroundfetch:0.5.0] C:\Users\akpak\.gradle\caches\transforms-2\files-2.1\005231a4b4a431b077882f0f7219f853\jetified-tsbackgroundfetch-0.5.0\AndroidManifest.xml:20:13-36
	android:permission
		ADDED from [com.transistorsoft:tsbackgroundfetch:0.5.0] C:\Users\akpak\.gradle\caches\transforms-2\files-2.1\005231a4b4a431b077882f0f7219f853\jetified-tsbackgroundfetch-0.5.0\AndroidManifest.xml:21:13-69
	android:name
		ADDED from [com.transistorsoft:tsbackgroundfetch:0.5.0] C:\Users\akpak\.gradle\caches\transforms-2\files-2.1\005231a4b4a431b077882f0f7219f853\jetified-tsbackgroundfetch-0.5.0\AndroidManifest.xml:19:13-80
receiver#com.transistorsoft.tsbackgroundfetch.BootReceiver
ADDED from [com.transistorsoft:tsbackgroundfetch:0.5.0] C:\Users\akpak\.gradle\caches\transforms-2\files-2.1\005231a4b4a431b077882f0f7219f853\jetified-tsbackgroundfetch-0.5.0\AndroidManifest.xml:23:9-28:20
	android:name
		ADDED from [com.transistorsoft:tsbackgroundfetch:0.5.0] C:\Users\akpak\.gradle\caches\transforms-2\files-2.1\005231a4b4a431b077882f0f7219f853\jetified-tsbackgroundfetch-0.5.0\AndroidManifest.xml:23:19-83
intent-filter#action:name:android.intent.action.BOOT_COMPLETED+action:name:android.intent.action.MY_PACKAGE_REPLACED
ADDED from [com.transistorsoft:tsbackgroundfetch:0.5.0] C:\Users\akpak\.gradle\caches\transforms-2\files-2.1\005231a4b4a431b077882f0f7219f853\jetified-tsbackgroundfetch-0.5.0\AndroidManifest.xml:24:13-27:29
action#android.intent.action.BOOT_COMPLETED
ADDED from [com.transistorsoft:tsbackgroundfetch:0.5.0] C:\Users\akpak\.gradle\caches\transforms-2\files-2.1\005231a4b4a431b077882f0f7219f853\jetified-tsbackgroundfetch-0.5.0\AndroidManifest.xml:25:17-79
	android:name
		ADDED from [com.transistorsoft:tsbackgroundfetch:0.5.0] C:\Users\akpak\.gradle\caches\transforms-2\files-2.1\005231a4b4a431b077882f0f7219f853\jetified-tsbackgroundfetch-0.5.0\AndroidManifest.xml:25:25-76
action#android.intent.action.MY_PACKAGE_REPLACED
ADDED from [com.transistorsoft:tsbackgroundfetch:0.5.0] C:\Users\akpak\.gradle\caches\transforms-2\files-2.1\005231a4b4a431b077882f0f7219f853\jetified-tsbackgroundfetch-0.5.0\AndroidManifest.xml:26:17-84
	android:name
		ADDED from [com.transistorsoft:tsbackgroundfetch:0.5.0] C:\Users\akpak\.gradle\caches\transforms-2\files-2.1\005231a4b4a431b077882f0f7219f853\jetified-tsbackgroundfetch-0.5.0\AndroidManifest.xml:26:25-81
uses-permission#android.permission.FOREGROUND_SERVICE
ADDED from [androidx.work:work-runtime:2.4.0] C:\Users\akpak\.gradle\caches\transforms-2\files-2.1\f67803057b632d2c8cd47d344b63dfe1\work-runtime-2.4.0\AndroidManifest.xml:28:5-77
	android:name
		ADDED from [androidx.work:work-runtime:2.4.0] C:\Users\akpak\.gradle\caches\transforms-2\files-2.1\f67803057b632d2c8cd47d344b63dfe1\work-runtime-2.4.0\AndroidManifest.xml:28:22-74
provider#androidx.work.impl.WorkManagerInitializer
ADDED from [androidx.work:work-runtime:2.4.0] C:\Users\akpak\.gradle\caches\transforms-2\files-2.1\f67803057b632d2c8cd47d344b63dfe1\work-runtime-2.4.0\AndroidManifest.xml:31:9-37:35
	android:authorities
		ADDED from [androidx.work:work-runtime:2.4.0] C:\Users\akpak\.gradle\caches\transforms-2\files-2.1\f67803057b632d2c8cd47d344b63dfe1\work-runtime-2.4.0\AndroidManifest.xml:33:13-68
	android:multiprocess
		ADDED from [androidx.work:work-runtime:2.4.0] C:\Users\akpak\.gradle\caches\transforms-2\files-2.1\f67803057b632d2c8cd47d344b63dfe1\work-runtime-2.4.0\AndroidManifest.xml:36:13-40
	android:exported
		ADDED from [androidx.work:work-runtime:2.4.0] C:\Users\akpak\.gradle\caches\transforms-2\files-2.1\f67803057b632d2c8cd47d344b63dfe1\work-runtime-2.4.0\AndroidManifest.xml:35:13-37
	tools:targetApi
		ADDED from [androidx.work:work-runtime:2.4.0] C:\Users\akpak\.gradle\caches\transforms-2\files-2.1\f67803057b632d2c8cd47d344b63dfe1\work-runtime-2.4.0\AndroidManifest.xml:37:13-32
	android:directBootAware
		ADDED from [androidx.work:work-runtime:2.4.0] C:\Users\akpak\.gradle\caches\transforms-2\files-2.1\f67803057b632d2c8cd47d344b63dfe1\work-runtime-2.4.0\AndroidManifest.xml:34:13-44
	android:name
		ADDED from [androidx.work:work-runtime:2.4.0] C:\Users\akpak\.gradle\caches\transforms-2\files-2.1\f67803057b632d2c8cd47d344b63dfe1\work-runtime-2.4.0\AndroidManifest.xml:32:13-69
service#androidx.work.impl.background.systemalarm.SystemAlarmService
ADDED from [androidx.work:work-runtime:2.4.0] C:\Users\akpak\.gradle\caches\transforms-2\files-2.1\f67803057b632d2c8cd47d344b63dfe1\work-runtime-2.4.0\AndroidManifest.xml:39:9-44:35
	android:enabled
		ADDED from [androidx.work:work-runtime:2.4.0] C:\Users\akpak\.gradle\caches\transforms-2\files-2.1\f67803057b632d2c8cd47d344b63dfe1\work-runtime-2.4.0\AndroidManifest.xml:42:13-72
	android:exported
		ADDED from [androidx.work:work-runtime:2.4.0] C:\Users\akpak\.gradle\caches\transforms-2\files-2.1\f67803057b632d2c8cd47d344b63dfe1\work-runtime-2.4.0\AndroidManifest.xml:43:13-37
	tools:targetApi
		ADDED from [androidx.work:work-runtime:2.4.0] C:\Users\akpak\.gradle\caches\transforms-2\files-2.1\f67803057b632d2c8cd47d344b63dfe1\work-runtime-2.4.0\AndroidManifest.xml:44:13-32
	android:directBootAware
		ADDED from [androidx.work:work-runtime:2.4.0] C:\Users\akpak\.gradle\caches\transforms-2\files-2.1\f67803057b632d2c8cd47d344b63dfe1\work-runtime-2.4.0\AndroidManifest.xml:41:13-44
	android:name
		ADDED from [androidx.work:work-runtime:2.4.0] C:\Users\akpak\.gradle\caches\transforms-2\files-2.1\f67803057b632d2c8cd47d344b63dfe1\work-runtime-2.4.0\AndroidManifest.xml:40:13-88
service#androidx.work.impl.background.systemjob.SystemJobService
ADDED from [androidx.work:work-runtime:2.4.0] C:\Users\akpak\.gradle\caches\transforms-2\files-2.1\f67803057b632d2c8cd47d344b63dfe1\work-runtime-2.4.0\AndroidManifest.xml:45:9-51:35
	android:enabled
		ADDED from [androidx.work:work-runtime:2.4.0] C:\Users\akpak\.gradle\caches\transforms-2\files-2.1\f67803057b632d2c8cd47d344b63dfe1\work-runtime-2.4.0\AndroidManifest.xml:48:13-70
	android:exported
		ADDED from [androidx.work:work-runtime:2.4.0] C:\Users\akpak\.gradle\caches\transforms-2\files-2.1\f67803057b632d2c8cd47d344b63dfe1\work-runtime-2.4.0\AndroidManifest.xml:49:13-36
	android:permission
		ADDED from [androidx.work:work-runtime:2.4.0] C:\Users\akpak\.gradle\caches\transforms-2\files-2.1\f67803057b632d2c8cd47d344b63dfe1\work-runtime-2.4.0\AndroidManifest.xml:50:13-69
	tools:targetApi
		ADDED from [androidx.work:work-runtime:2.4.0] C:\Users\akpak\.gradle\caches\transforms-2\files-2.1\f67803057b632d2c8cd47d344b63dfe1\work-runtime-2.4.0\AndroidManifest.xml:51:13-32
	android:directBootAware
		ADDED from [androidx.work:work-runtime:2.4.0] C:\Users\akpak\.gradle\caches\transforms-2\files-2.1\f67803057b632d2c8cd47d344b63dfe1\work-runtime-2.4.0\AndroidManifest.xml:47:13-44
	android:name
		ADDED from [androidx.work:work-runtime:2.4.0] C:\Users\akpak\.gradle\caches\transforms-2\files-2.1\f67803057b632d2c8cd47d344b63dfe1\work-runtime-2.4.0\AndroidManifest.xml:46:13-84
service#androidx.work.impl.foreground.SystemForegroundService
ADDED from [androidx.work:work-runtime:2.4.0] C:\Users\akpak\.gradle\caches\transforms-2\files-2.1\f67803057b632d2c8cd47d344b63dfe1\work-runtime-2.4.0\AndroidManifest.xml:52:9-57:35
	android:enabled
		ADDED from [androidx.work:work-runtime:2.4.0] C:\Users\akpak\.gradle\caches\transforms-2\files-2.1\f67803057b632d2c8cd47d344b63dfe1\work-runtime-2.4.0\AndroidManifest.xml:55:13-77
	android:exported
		ADDED from [androidx.work:work-runtime:2.4.0] C:\Users\akpak\.gradle\caches\transforms-2\files-2.1\f67803057b632d2c8cd47d344b63dfe1\work-runtime-2.4.0\AndroidManifest.xml:56:13-37
	tools:targetApi
		ADDED from [androidx.work:work-runtime:2.4.0] C:\Users\akpak\.gradle\caches\transforms-2\files-2.1\f67803057b632d2c8cd47d344b63dfe1\work-runtime-2.4.0\AndroidManifest.xml:57:13-32
	android:directBootAware
		ADDED from [androidx.work:work-runtime:2.4.0] C:\Users\akpak\.gradle\caches\transforms-2\files-2.1\f67803057b632d2c8cd47d344b63dfe1\work-runtime-2.4.0\AndroidManifest.xml:54:13-44
	android:name
		ADDED from [androidx.work:work-runtime:2.4.0] C:\Users\akpak\.gradle\caches\transforms-2\files-2.1\f67803057b632d2c8cd47d344b63dfe1\work-runtime-2.4.0\AndroidManifest.xml:53:13-81
receiver#androidx.work.impl.utils.ForceStopRunnable$BroadcastReceiver
ADDED from [androidx.work:work-runtime:2.4.0] C:\Users\akpak\.gradle\caches\transforms-2\files-2.1\f67803057b632d2c8cd47d344b63dfe1\work-runtime-2.4.0\AndroidManifest.xml:59:9-64:35
	android:enabled
		ADDED from [androidx.work:work-runtime:2.4.0] C:\Users\akpak\.gradle\caches\transforms-2\files-2.1\f67803057b632d2c8cd47d344b63dfe1\work-runtime-2.4.0\AndroidManifest.xml:62:13-35
	android:exported
		ADDED from [androidx.work:work-runtime:2.4.0] C:\Users\akpak\.gradle\caches\transforms-2\files-2.1\f67803057b632d2c8cd47d344b63dfe1\work-runtime-2.4.0\AndroidManifest.xml:63:13-37
	tools:targetApi
		ADDED from [androidx.work:work-runtime:2.4.0] C:\Users\akpak\.gradle\caches\transforms-2\files-2.1\f67803057b632d2c8cd47d344b63dfe1\work-runtime-2.4.0\AndroidManifest.xml:64:13-32
	android:directBootAware
		ADDED from [androidx.work:work-runtime:2.4.0] C:\Users\akpak\.gradle\caches\transforms-2\files-2.1\f67803057b632d2c8cd47d344b63dfe1\work-runtime-2.4.0\AndroidManifest.xml:61:13-44
	android:name
		ADDED from [androidx.work:work-runtime:2.4.0] C:\Users\akpak\.gradle\caches\transforms-2\files-2.1\f67803057b632d2c8cd47d344b63dfe1\work-runtime-2.4.0\AndroidManifest.xml:60:13-88
receiver#androidx.work.impl.background.systemalarm.ConstraintProxy$BatteryChargingProxy
ADDED from [androidx.work:work-runtime:2.4.0] C:\Users\akpak\.gradle\caches\transforms-2\files-2.1\f67803057b632d2c8cd47d344b63dfe1\work-runtime-2.4.0\AndroidManifest.xml:65:9-75:20
	android:enabled
		ADDED from [androidx.work:work-runtime:2.4.0] C:\Users\akpak\.gradle\caches\transforms-2\files-2.1\f67803057b632d2c8cd47d344b63dfe1\work-runtime-2.4.0\AndroidManifest.xml:68:13-36
	android:exported
		ADDED from [androidx.work:work-runtime:2.4.0] C:\Users\akpak\.gradle\caches\transforms-2\files-2.1\f67803057b632d2c8cd47d344b63dfe1\work-runtime-2.4.0\AndroidManifest.xml:69:13-37
	tools:targetApi
		ADDED from [androidx.work:work-runtime:2.4.0] C:\Users\akpak\.gradle\caches\transforms-2\files-2.1\f67803057b632d2c8cd47d344b63dfe1\work-runtime-2.4.0\AndroidManifest.xml:70:13-32
	android:directBootAware
		ADDED from [androidx.work:work-runtime:2.4.0] C:\Users\akpak\.gradle\caches\transforms-2\files-2.1\f67803057b632d2c8cd47d344b63dfe1\work-runtime-2.4.0\AndroidManifest.xml:67:13-44
	android:name
		ADDED from [androidx.work:work-runtime:2.4.0] C:\Users\akpak\.gradle\caches\transforms-2\files-2.1\f67803057b632d2c8cd47d344b63dfe1\work-runtime-2.4.0\AndroidManifest.xml:66:13-106
intent-filter#action:name:android.intent.action.ACTION_POWER_CONNECTED+action:name:android.intent.action.ACTION_POWER_DISCONNECTED
ADDED from [androidx.work:work-runtime:2.4.0] C:\Users\akpak\.gradle\caches\transforms-2\files-2.1\f67803057b632d2c8cd47d344b63dfe1\work-runtime-2.4.0\AndroidManifest.xml:71:13-74:29
action#android.intent.action.ACTION_POWER_CONNECTED
ADDED from [androidx.work:work-runtime:2.4.0] C:\Users\akpak\.gradle\caches\transforms-2\files-2.1\f67803057b632d2c8cd47d344b63dfe1\work-runtime-2.4.0\AndroidManifest.xml:72:17-87
	android:name
		ADDED from [androidx.work:work-runtime:2.4.0] C:\Users\akpak\.gradle\caches\transforms-2\files-2.1\f67803057b632d2c8cd47d344b63dfe1\work-runtime-2.4.0\AndroidManifest.xml:72:25-84
action#android.intent.action.ACTION_POWER_DISCONNECTED
ADDED from [androidx.work:work-runtime:2.4.0] C:\Users\akpak\.gradle\caches\transforms-2\files-2.1\f67803057b632d2c8cd47d344b63dfe1\work-runtime-2.4.0\AndroidManifest.xml:73:17-90
	android:name
		ADDED from [androidx.work:work-runtime:2.4.0] C:\Users\akpak\.gradle\caches\transforms-2\files-2.1\f67803057b632d2c8cd47d344b63dfe1\work-runtime-2.4.0\AndroidManifest.xml:73:25-87
receiver#androidx.work.impl.background.systemalarm.ConstraintProxy$BatteryNotLowProxy
ADDED from [androidx.work:work-runtime:2.4.0] C:\Users\akpak\.gradle\caches\transforms-2\files-2.1\f67803057b632d2c8cd47d344b63dfe1\work-runtime-2.4.0\AndroidManifest.xml:76:9-86:20
	android:enabled
		ADDED from [androidx.work:work-runtime:2.4.0] C:\Users\akpak\.gradle\caches\transforms-2\files-2.1\f67803057b632d2c8cd47d344b63dfe1\work-runtime-2.4.0\AndroidManifest.xml:79:13-36
	android:exported
		ADDED from [androidx.work:work-runtime:2.4.0] C:\Users\akpak\.gradle\caches\transforms-2\files-2.1\f67803057b632d2c8cd47d344b63dfe1\work-runtime-2.4.0\AndroidManifest.xml:80:13-37
	tools:targetApi
		ADDED from [androidx.work:work-runtime:2.4.0] C:\Users\akpak\.gradle\caches\transforms-2\files-2.1\f67803057b632d2c8cd47d344b63dfe1\work-runtime-2.4.0\AndroidManifest.xml:81:13-32
	android:directBootAware
		ADDED from [androidx.work:work-runtime:2.4.0] C:\Users\akpak\.gradle\caches\transforms-2\files-2.1\f67803057b632d2c8cd47d344b63dfe1\work-runtime-2.4.0\AndroidManifest.xml:78:13-44
	android:name
		ADDED from [androidx.work:work-runtime:2.4.0] C:\Users\akpak\.gradle\caches\transforms-2\files-2.1\f67803057b632d2c8cd47d344b63dfe1\work-runtime-2.4.0\AndroidManifest.xml:77:13-104
intent-filter#action:name:android.intent.action.BATTERY_LOW+action:name:android.intent.action.BATTERY_OKAY
ADDED from [androidx.work:work-runtime:2.4.0] C:\Users\akpak\.gradle\caches\transforms-2\files-2.1\f67803057b632d2c8cd47d344b63dfe1\work-runtime-2.4.0\AndroidManifest.xml:82:13-85:29
action#android.intent.action.BATTERY_OKAY
ADDED from [androidx.work:work-runtime:2.4.0] C:\Users\akpak\.gradle\caches\transforms-2\files-2.1\f67803057b632d2c8cd47d344b63dfe1\work-runtime-2.4.0\AndroidManifest.xml:83:17-77
	android:name
		ADDED from [androidx.work:work-runtime:2.4.0] C:\Users\akpak\.gradle\caches\transforms-2\files-2.1\f67803057b632d2c8cd47d344b63dfe1\work-runtime-2.4.0\AndroidManifest.xml:83:25-74
action#android.intent.action.BATTERY_LOW
ADDED from [androidx.work:work-runtime:2.4.0] C:\Users\akpak\.gradle\caches\transforms-2\files-2.1\f67803057b632d2c8cd47d344b63dfe1\work-runtime-2.4.0\AndroidManifest.xml:84:17-76
	android:name
		ADDED from [androidx.work:work-runtime:2.4.0] C:\Users\akpak\.gradle\caches\transforms-2\files-2.1\f67803057b632d2c8cd47d344b63dfe1\work-runtime-2.4.0\AndroidManifest.xml:84:25-73
receiver#androidx.work.impl.background.systemalarm.ConstraintProxy$StorageNotLowProxy
ADDED from [androidx.work:work-runtime:2.4.0] C:\Users\akpak\.gradle\caches\transforms-2\files-2.1\f67803057b632d2c8cd47d344b63dfe1\work-runtime-2.4.0\AndroidManifest.xml:87:9-97:20
	android:enabled
		ADDED from [androidx.work:work-runtime:2.4.0] C:\Users\akpak\.gradle\caches\transforms-2\files-2.1\f67803057b632d2c8cd47d344b63dfe1\work-runtime-2.4.0\AndroidManifest.xml:90:13-36
	android:exported
		ADDED from [androidx.work:work-runtime:2.4.0] C:\Users\akpak\.gradle\caches\transforms-2\files-2.1\f67803057b632d2c8cd47d344b63dfe1\work-runtime-2.4.0\AndroidManifest.xml:91:13-37
	tools:targetApi
		ADDED from [androidx.work:work-runtime:2.4.0] C:\Users\akpak\.gradle\caches\transforms-2\files-2.1\f67803057b632d2c8cd47d344b63dfe1\work-runtime-2.4.0\AndroidManifest.xml:92:13-32
	android:directBootAware
		ADDED from [androidx.work:work-runtime:2.4.0] C:\Users\akpak\.gradle\caches\transforms-2\files-2.1\f67803057b632d2c8cd47d344b63dfe1\work-runtime-2.4.0\AndroidManifest.xml:89:13-44
	android:name
		ADDED from [androidx.work:work-runtime:2.4.0] C:\Users\akpak\.gradle\caches\transforms-2\files-2.1\f67803057b632d2c8cd47d344b63dfe1\work-runtime-2.4.0\AndroidManifest.xml:88:13-104
intent-filter#action:name:android.intent.action.DEVICE_STORAGE_LOW+action:name:android.intent.action.DEVICE_STORAGE_OK
ADDED from [androidx.work:work-runtime:2.4.0] C:\Users\akpak\.gradle\caches\transforms-2\files-2.1\f67803057b632d2c8cd47d344b63dfe1\work-runtime-2.4.0\AndroidManifest.xml:93:13-96:29
action#android.intent.action.DEVICE_STORAGE_LOW
ADDED from [androidx.work:work-runtime:2.4.0] C:\Users\akpak\.gradle\caches\transforms-2\files-2.1\f67803057b632d2c8cd47d344b63dfe1\work-runtime-2.4.0\AndroidManifest.xml:94:17-83
	android:name
		ADDED from [androidx.work:work-runtime:2.4.0] C:\Users\akpak\.gradle\caches\transforms-2\files-2.1\f67803057b632d2c8cd47d344b63dfe1\work-runtime-2.4.0\AndroidManifest.xml:94:25-80
action#android.intent.action.DEVICE_STORAGE_OK
ADDED from [androidx.work:work-runtime:2.4.0] C:\Users\akpak\.gradle\caches\transforms-2\files-2.1\f67803057b632d2c8cd47d344b63dfe1\work-runtime-2.4.0\AndroidManifest.xml:95:17-82
	android:name
		ADDED from [androidx.work:work-runtime:2.4.0] C:\Users\akpak\.gradle\caches\transforms-2\files-2.1\f67803057b632d2c8cd47d344b63dfe1\work-runtime-2.4.0\AndroidManifest.xml:95:25-79
receiver#androidx.work.impl.background.systemalarm.ConstraintProxy$NetworkStateProxy
ADDED from [androidx.work:work-runtime:2.4.0] C:\Users\akpak\.gradle\caches\transforms-2\files-2.1\f67803057b632d2c8cd47d344b63dfe1\work-runtime-2.4.0\AndroidManifest.xml:98:9-107:20
	android:enabled
		ADDED from [androidx.work:work-runtime:2.4.0] C:\Users\akpak\.gradle\caches\transforms-2\files-2.1\f67803057b632d2c8cd47d344b63dfe1\work-runtime-2.4.0\AndroidManifest.xml:101:13-36
	android:exported
		ADDED from [androidx.work:work-runtime:2.4.0] C:\Users\akpak\.gradle\caches\transforms-2\files-2.1\f67803057b632d2c8cd47d344b63dfe1\work-runtime-2.4.0\AndroidManifest.xml:102:13-37
	tools:targetApi
		ADDED from [androidx.work:work-runtime:2.4.0] C:\Users\akpak\.gradle\caches\transforms-2\files-2.1\f67803057b632d2c8cd47d344b63dfe1\work-runtime-2.4.0\AndroidManifest.xml:103:13-32
	android:directBootAware
		ADDED from [androidx.work:work-runtime:2.4.0] C:\Users\akpak\.gradle\caches\transforms-2\files-2.1\f67803057b632d2c8cd47d344b63dfe1\work-runtime-2.4.0\AndroidManifest.xml:100:13-44
	android:name
		ADDED from [androidx.work:work-runtime:2.4.0] C:\Users\akpak\.gradle\caches\transforms-2\files-2.1\f67803057b632d2c8cd47d344b63dfe1\work-runtime-2.4.0\AndroidManifest.xml:99:13-103
intent-filter#action:name:android.net.conn.CONNECTIVITY_CHANGE
ADDED from [androidx.work:work-runtime:2.4.0] C:\Users\akpak\.gradle\caches\transforms-2\files-2.1\f67803057b632d2c8cd47d344b63dfe1\work-runtime-2.4.0\AndroidManifest.xml:104:13-106:29
action#android.net.conn.CONNECTIVITY_CHANGE
ADDED from [androidx.work:work-runtime:2.4.0] C:\Users\akpak\.gradle\caches\transforms-2\files-2.1\f67803057b632d2c8cd47d344b63dfe1\work-runtime-2.4.0\AndroidManifest.xml:105:17-79
	android:name
		ADDED from [androidx.work:work-runtime:2.4.0] C:\Users\akpak\.gradle\caches\transforms-2\files-2.1\f67803057b632d2c8cd47d344b63dfe1\work-runtime-2.4.0\AndroidManifest.xml:105:25-76
receiver#androidx.work.impl.background.systemalarm.RescheduleReceiver
ADDED from [androidx.work:work-runtime:2.4.0] C:\Users\akpak\.gradle\caches\transforms-2\files-2.1\f67803057b632d2c8cd47d344b63dfe1\work-runtime-2.4.0\AndroidManifest.xml:108:9-119:20
	android:enabled
		ADDED from [androidx.work:work-runtime:2.4.0] C:\Users\akpak\.gradle\caches\transforms-2\files-2.1\f67803057b632d2c8cd47d344b63dfe1\work-runtime-2.4.0\AndroidManifest.xml:111:13-36
	android:exported
		ADDED from [androidx.work:work-runtime:2.4.0] C:\Users\akpak\.gradle\caches\transforms-2\files-2.1\f67803057b632d2c8cd47d344b63dfe1\work-runtime-2.4.0\AndroidManifest.xml:112:13-37
	tools:targetApi
		ADDED from [androidx.work:work-runtime:2.4.0] C:\Users\akpak\.gradle\caches\transforms-2\files-2.1\f67803057b632d2c8cd47d344b63dfe1\work-runtime-2.4.0\AndroidManifest.xml:113:13-32
	android:directBootAware
		ADDED from [androidx.work:work-runtime:2.4.0] C:\Users\akpak\.gradle\caches\transforms-2\files-2.1\f67803057b632d2c8cd47d344b63dfe1\work-runtime-2.4.0\AndroidManifest.xml:110:13-44
	android:name
		ADDED from [androidx.work:work-runtime:2.4.0] C:\Users\akpak\.gradle\caches\transforms-2\files-2.1\f67803057b632d2c8cd47d344b63dfe1\work-runtime-2.4.0\AndroidManifest.xml:109:13-88
intent-filter#action:name:android.intent.action.BOOT_COMPLETED+action:name:android.intent.action.TIMEZONE_CHANGED+action:name:android.intent.action.TIME_SET
ADDED from [androidx.work:work-runtime:2.4.0] C:\Users\akpak\.gradle\caches\transforms-2\files-2.1\f67803057b632d2c8cd47d344b63dfe1\work-runtime-2.4.0\AndroidManifest.xml:114:13-118:29
action#android.intent.action.TIME_SET
ADDED from [androidx.work:work-runtime:2.4.0] C:\Users\akpak\.gradle\caches\transforms-2\files-2.1\f67803057b632d2c8cd47d344b63dfe1\work-runtime-2.4.0\AndroidManifest.xml:116:17-73
	android:name
		ADDED from [androidx.work:work-runtime:2.4.0] C:\Users\akpak\.gradle\caches\transforms-2\files-2.1\f67803057b632d2c8cd47d344b63dfe1\work-runtime-2.4.0\AndroidManifest.xml:116:25-70
action#android.intent.action.TIMEZONE_CHANGED
ADDED from [androidx.work:work-runtime:2.4.0] C:\Users\akpak\.gradle\caches\transforms-2\files-2.1\f67803057b632d2c8cd47d344b63dfe1\work-runtime-2.4.0\AndroidManifest.xml:117:17-81
	android:name
		ADDED from [androidx.work:work-runtime:2.4.0] C:\Users\akpak\.gradle\caches\transforms-2\files-2.1\f67803057b632d2c8cd47d344b63dfe1\work-runtime-2.4.0\AndroidManifest.xml:117:25-78
receiver#androidx.work.impl.background.systemalarm.ConstraintProxyUpdateReceiver
ADDED from [androidx.work:work-runtime:2.4.0] C:\Users\akpak\.gradle\caches\transforms-2\files-2.1\f67803057b632d2c8cd47d344b63dfe1\work-runtime-2.4.0\AndroidManifest.xml:120:9-129:20
	android:enabled
		ADDED from [androidx.work:work-runtime:2.4.0] C:\Users\akpak\.gradle\caches\transforms-2\files-2.1\f67803057b632d2c8cd47d344b63dfe1\work-runtime-2.4.0\AndroidManifest.xml:123:13-72
	android:exported
		ADDED from [androidx.work:work-runtime:2.4.0] C:\Users\akpak\.gradle\caches\transforms-2\files-2.1\f67803057b632d2c8cd47d344b63dfe1\work-runtime-2.4.0\AndroidManifest.xml:124:13-37
	tools:targetApi
		ADDED from [androidx.work:work-runtime:2.4.0] C:\Users\akpak\.gradle\caches\transforms-2\files-2.1\f67803057b632d2c8cd47d344b63dfe1\work-runtime-2.4.0\AndroidManifest.xml:125:13-32
	android:directBootAware
		ADDED from [androidx.work:work-runtime:2.4.0] C:\Users\akpak\.gradle\caches\transforms-2\files-2.1\f67803057b632d2c8cd47d344b63dfe1\work-runtime-2.4.0\AndroidManifest.xml:122:13-44
	android:name
		ADDED from [androidx.work:work-runtime:2.4.0] C:\Users\akpak\.gradle\caches\transforms-2\files-2.1\f67803057b632d2c8cd47d344b63dfe1\work-runtime-2.4.0\AndroidManifest.xml:121:13-99
intent-filter#action:name:androidx.work.impl.background.systemalarm.UpdateProxies
ADDED from [androidx.work:work-runtime:2.4.0] C:\Users\akpak\.gradle\caches\transforms-2\files-2.1\f67803057b632d2c8cd47d344b63dfe1\work-runtime-2.4.0\AndroidManifest.xml:126:13-128:29
action#androidx.work.impl.background.systemalarm.UpdateProxies
ADDED from [androidx.work:work-runtime:2.4.0] C:\Users\akpak\.gradle\caches\transforms-2\files-2.1\f67803057b632d2c8cd47d344b63dfe1\work-runtime-2.4.0\AndroidManifest.xml:127:17-98
	android:name
		ADDED from [androidx.work:work-runtime:2.4.0] C:\Users\akpak\.gradle\caches\transforms-2\files-2.1\f67803057b632d2c8cd47d344b63dfe1\work-runtime-2.4.0\AndroidManifest.xml:127:25-95
receiver#androidx.work.impl.diagnostics.DiagnosticsReceiver
ADDED from [androidx.work:work-runtime:2.4.0] C:\Users\akpak\.gradle\caches\transforms-2\files-2.1\f67803057b632d2c8cd47d344b63dfe1\work-runtime-2.4.0\AndroidManifest.xml:130:9-140:20
	android:enabled
		ADDED from [androidx.work:work-runtime:2.4.0] C:\Users\akpak\.gradle\caches\transforms-2\files-2.1\f67803057b632d2c8cd47d344b63dfe1\work-runtime-2.4.0\AndroidManifest.xml:133:13-35
	android:exported
		ADDED from [androidx.work:work-runtime:2.4.0] C:\Users\akpak\.gradle\caches\transforms-2\files-2.1\f67803057b632d2c8cd47d344b63dfe1\work-runtime-2.4.0\AndroidManifest.xml:134:13-36
	android:permission
		ADDED from [androidx.work:work-runtime:2.4.0] C:\Users\akpak\.gradle\caches\transforms-2\files-2.1\f67803057b632d2c8cd47d344b63dfe1\work-runtime-2.4.0\AndroidManifest.xml:135:13-57
	tools:targetApi
		ADDED from [androidx.work:work-runtime:2.4.0] C:\Users\akpak\.gradle\caches\transforms-2\files-2.1\f67803057b632d2c8cd47d344b63dfe1\work-runtime-2.4.0\AndroidManifest.xml:136:13-32
	android:directBootAware
		ADDED from [androidx.work:work-runtime:2.4.0] C:\Users\akpak\.gradle\caches\transforms-2\files-2.1\f67803057b632d2c8cd47d344b63dfe1\work-runtime-2.4.0\AndroidManifest.xml:132:13-44
	android:name
		ADDED from [androidx.work:work-runtime:2.4.0] C:\Users\akpak\.gradle\caches\transforms-2\files-2.1\f67803057b632d2c8cd47d344b63dfe1\work-runtime-2.4.0\AndroidManifest.xml:131:13-78
intent-filter#action:name:androidx.work.diagnostics.REQUEST_DIAGNOSTICS
ADDED from [androidx.work:work-runtime:2.4.0] C:\Users\akpak\.gradle\caches\transforms-2\files-2.1\f67803057b632d2c8cd47d344b63dfe1\work-runtime-2.4.0\AndroidManifest.xml:137:13-139:29
action#androidx.work.diagnostics.REQUEST_DIAGNOSTICS
ADDED from [androidx.work:work-runtime:2.4.0] C:\Users\akpak\.gradle\caches\transforms-2\files-2.1\f67803057b632d2c8cd47d344b63dfe1\work-runtime-2.4.0\AndroidManifest.xml:138:17-88
	android:name
		ADDED from [androidx.work:work-runtime:2.4.0] C:\Users\akpak\.gradle\caches\transforms-2\files-2.1\f67803057b632d2c8cd47d344b63dfe1\work-runtime-2.4.0\AndroidManifest.xml:138:25-85
activity#com.google.android.gms.common.api.GoogleApiActivity
ADDED from [com.google.android.gms:play-services-base:17.0.0] C:\Users\akpak\.gradle\caches\transforms-2\files-2.1\80960ac71c81acff934f6abfde69d407\jetified-play-services-base-17.0.0\AndroidManifest.xml:23:9-26:75
	android:exported
		ADDED from [com.google.android.gms:play-services-base:17.0.0] C:\Users\akpak\.gradle\caches\transforms-2\files-2.1\80960ac71c81acff934f6abfde69d407\jetified-play-services-base-17.0.0\AndroidManifest.xml:25:13-37
	android:theme
		ADDED from [com.google.android.gms:play-services-base:17.0.0] C:\Users\akpak\.gradle\caches\transforms-2\files-2.1\80960ac71c81acff934f6abfde69d407\jetified-play-services-base-17.0.0\AndroidManifest.xml:26:13-72
	android:name
		ADDED from [com.google.android.gms:play-services-base:17.0.0] C:\Users\akpak\.gradle\caches\transforms-2\files-2.1\80960ac71c81acff934f6abfde69d407\jetified-play-services-base-17.0.0\AndroidManifest.xml:24:13-79
meta-data#com.google.android.gms.version
ADDED from [com.google.android.gms:play-services-basement:17.0.0] C:\Users\akpak\.gradle\caches\transforms-2\files-2.1\c4d2bd0fd59f3d5989a556221e9d8667\jetified-play-services-basement-17.0.0\AndroidManifest.xml:23:9-25:69
	android:value
		ADDED from [com.google.android.gms:play-services-basement:17.0.0] C:\Users\akpak\.gradle\caches\transforms-2\files-2.1\c4d2bd0fd59f3d5989a556221e9d8667\jetified-play-services-basement-17.0.0\AndroidManifest.xml:25:13-66
	android:name
		ADDED from [com.google.android.gms:play-services-basement:17.0.0] C:\Users\akpak\.gradle\caches\transforms-2\files-2.1\c4d2bd0fd59f3d5989a556221e9d8667\jetified-play-services-basement-17.0.0\AndroidManifest.xml:24:13-58
service#androidx.room.MultiInstanceInvalidationService
ADDED from [androidx.room:room-runtime:2.2.5] C:\Users\akpak\.gradle\caches\transforms-2\files-2.1\fadacd6bfd25a7522bda27d8a82451fd\room-runtime-2.2.5\AndroidManifest.xml:25:9-28:40
	android:exported
		ADDED from [androidx.room:room-runtime:2.2.5] C:\Users\akpak\.gradle\caches\transforms-2\files-2.1\fadacd6bfd25a7522bda27d8a82451fd\room-runtime-2.2.5\AndroidManifest.xml:28:13-37
	android:directBootAware
		ADDED from [androidx.room:room-runtime:2.2.5] C:\Users\akpak\.gradle\caches\transforms-2\files-2.1\fadacd6bfd25a7522bda27d8a82451fd\room-runtime-2.2.5\AndroidManifest.xml:27:13-43
	android:name
		ADDED from [androidx.room:room-runtime:2.2.5] C:\Users\akpak\.gradle\caches\transforms-2\files-2.1\fadacd6bfd25a7522bda27d8a82451fd\room-runtime-2.2.5\AndroidManifest.xml:26:13-74
